{
  "ACTOR.TypeCharacter": "PJ - Personnage joueur",
  "ACTOR.TypeNpc": "PNJ - Personnage non joueur",
  "ACTOR.TypeVehicle": "Véhicule",
  "ITEM.TypeBackpack": "Sac à dos",
  "ITEM.TypeClass": "Classe",
  "ITEM.TypeConsumable": "Consommable",
  "ITEM.TypeEquipment": "Equipement",
  "ITEM.TypeFeat": "Trait",
  "ITEM.TypeLoot": "Trésor",
  "ITEM.TypeSpell": "Sort",
  "ITEM.TypeTool": "Outils",
  "ITEM.TypeWeapon": "Arme",

  "DND5E.title": "Dungeons & Dragons 5ème Edition",
  "DND5E.AbbreviationCR": "FP",
  "DND5E.AbbreviationConc": "Conc.",
  "DND5E.AbbreviationDC": "DD",
  "DND5E.AbbreviationLR": "RL",
  "DND5E.AbbreviationLevel": "Niv.",
  "DND5E.AbbreviationLbs": "Kg",
  "DND5E.AbbreviationSR": "RC",
  "DND5E.Ability": "Caractéristique",
  "DND5E.AbilityStr": "Force",
  "DND5E.AbilityStrAbbr": "for",
  "DND5E.AbilityCon": "Constitution",
  "DND5E.AbilityConAbbr": "con",
  "DND5E.AbilityDex": "Dexterite",
  "DND5E.AbilityDexAbbr": "dex",
  "DND5E.AbilityInt": "Intelligence",
  "DND5E.AbilityIntAbbr": "int",
  "DND5E.AbilityWis": "Sagesse",
  "DND5E.AbilityWisAbbr": "sag",
  "DND5E.AbilityCha": "Charisme",
  "DND5E.AbilityChaAbbr": "cha",
  "DND5E.AbilityModifier": "Modificateur de caractéristique",
  "DND5E.AbilityPromptText": "Quel type de test de {ability} ?",
  "DND5E.AbilityPromptTitle": "Test de {ability}",
   "DND5E.AbilityUseHint": "Configurer la manière d'utiliser le {type} de {name} .",
  "DND5E.AbilityUseUnavailableHint": "Cet objet n'est plus utilisable!",
  "DND5E.AbilityUseChargedHint": "Ce {type} est chargé et prêt à être utilisé!",
  "DND5E.AbilityUseRechargedHint": "Ce {type} est épuisé et doit être rechargé!",
  "DND5E.AbilityUseNormalHint": "Ce {type} utilise {value} de {max} par {per} restant.",
  "DND5E.AbilityUseConsumableChargeHint": "Utiliser ce {type} consommera 1 charge de {value} restante.",
  "DND5E.AbilityUseConsumableQuantityHint": "Utiliser ce {type} consommera 1 quantité de {quantity} restante.",
  "DND5E.AbilityUseConsumableDestroyHint": "Utiliser ce {type} consommera ce dernière charge et sera détruite",
  "DND5E.AbilityUseConsume": "Consommer l'utilisation disponible ?",
  "DND5E.AbilityUseChargesLabel": "{value} Charges",
  "DND5E.AbilityUseConsumableLabel": "{max} par {per}",
  "DND5E.AbilityUseCast": "Lancer le sort",
  "DND5E.AbilityUseUse": "Utiliser",

  "DND5E.Action": "Action",
  "DND5E.ActionPl": "Actions",
  "DND5E.ActionAbil": "Test de caractéristique",
  "DND5E.ActionHeal": "Points de vie",
  "DND5E.ActionMSAK": "Attaque de sort de mêlée",
  "DND5E.ActionMWAK": "Attaque d'arme de mêlée",
  "DND5E.ActionOther": "Autre",
  "DND5E.ActionRSAK": "Attaque de sorts à distance",
  "DND5E.ActionRWAK": "Attaque d'arme à distance",
  "DND5E.ActionSave": "Jet de Sauvegarde",
  "DND5E.ActionUtil": "Utilitaire",
  "DND5E.ActionWarningNoItem": "L'élément demandé {item} n'existe plus sur l'acteur {name}",
  "DND5E.ActionWarningNoToken": "Vous devez disposer d'un ou de plusieurs tokens contrôlés pour pouvoir utiliser cette option.",
  "DND5E.Add": "Créer",
  "DND5E.Advantage": "Avantage",
  "DND5E.Alignment": "Alignement",
  "DND5E.AlignmentCE": "Chaotique mauvais",
  "DND5E.AlignmentCG": "Chaotique Bon",
  "DND5E.AlignmentCN": "Chaotique Neutre",
  "DND5E.AlignmentLE": "Loyal Mauvais",
  "DND5E.AlignmentLG": "Loyal Bon",
  "DND5E.AlignmentLN": "Loyal Neutre",
  "DND5E.AlignmentNE": "Neutre Mauvais",
  "DND5E.AlignmentNG": "Neutre Bon",
  "DND5E.AlignmentTN": "Neutre",
  "DND5E.Appearance": "Apparence",
  "DND5E.ArmorClass": "Classe d'Armure",
  "DND5E.AC": "CA",
  "DND5E.Attack": "Attaque",
  "DND5E.AttackPl": "Attaques",
  "DND5E.AttackRoll": "Jet d'Attaque",
  "DND5E.Attributes": "Caracteristiques",
  "DND5E.Attuned": "Harmonisé",
  "DND5E.Background": "Historique",
  "DND5E.Biography": "Biographie",
  "DND5E.Bonds": "Liens",
  "DND5E.BonusAbilityCheck": "Bonus général aux tests de caractéristiques",
  "DND5E.BonusAbilitySave": "Bonus général aux jets de sauvegardes",
  "DND5E.BonusAbilitySkill": "Bonus général aux jets de compétences",
  "DND5E.BonusAction": "Action Bonus",
  "DND5E.BonusMSAttack": "Bonus d'att. : sorts de mélées",
  "DND5E.BonusMSDamage": "Bonus Dégats : sorts de mélées",
  "DND5E.BonusMWAttack": "Bonus d'att. : armes de mélées",
  "DND5E.BonusMWDamage": "Bonus Dégats : armes de mélées",
  "DND5E.BonusRSAttack": "Bonus d'att. : sorts à distance",
  "DND5E.BonusRSDamage": "Bonus Dégats : sorts à distance",
  "DND5E.BonusRWAttack": "Bonus d'att. : armes à distances",
  "DND5E.BonusRWDamage": "Bonus Dégats : armes à distance",
  "DND5E.BonusSaveForm": "Mise à jour des bonus",
  "DND5E.BonusSpellDC": "Bonus général de résistance aux sorts",
  "DND5E.BonusTitle": "Configurer les bonus des acteurs",
  "DND5E.Bonuses": "Bonus Généraux",
  "DND5E.BonusesHint": "Définir les bonus généraux comme des formules qui sont ajoutées à certains lancers. Par exemple : 1d4 + 2",
  "DND5E.BonusesInstructions": "Configurer les bonus de personnage qui sont ajoutés au jet de dés approprié",
  "DND5E.ChallengeRating": "Indice de Dangerosité",
  "DND5E.Charged": "Chargé",
  "DND5E.Charges": "Charges",
  "DND5E.ChatContextDamage": "Appliquer les dégâts",
  "DND5E.ChatContextHealing": "Appliquer les soins",
  "DND5E.ChatContextDoubleDamage": "Appliquer le double des Dégâts",
  "DND5E.ChatContextHalfDamage": "Appliquer la moitié des dégâts",
  "DND5E.ChatFlavor": "texte d'ambiance",
  "DND5E.ClassLevels": "Niveau de Classe",
  "DND5E.ClassName": "Nom de la Classe",
  "DND5E.ClassSkillsNumber": "Nombre de compétences de départ",
  "DND5E.ClassSkillsChosen": "Compétences de la classe choisie",
  "DND5E.ComponentMaterial": "Matérielle",
  "DND5E.ComponentSomatic": "Somatique", 
  "DND5E.ComponentVerbal": "Verbale",   
  "DND5E.ConBlinded": "Aveuglé",
  "DND5E.ConCharmed": "Charmé",
  "DND5E.ConDeafened": "Assourdi",
  "DND5E.ConDiseased": "Malade",
  "DND5E.ConExhaustion": "Epuisé",
  "DND5E.ConFrightened": "Terrorisé",
  "DND5E.ConGrappled": "Empoigné",
  "DND5E.ConImm": "Immunité",
  "DND5E.ConIncapacitated": "Neutralisé",
  "DND5E.ConInvisible": "Invisible",
  "DND5E.ConParalyzed": "Paralysé",
  "DND5E.ConPetrified": "Pétrifié",
  "DND5E.ConPoisoned": "Empoisonné",
  "DND5E.ConProne": "À terre",
  "DND5E.ConRestrained": "Entravé",
  "DND5E.ConStunned": "Étourdi",
  "DND5E.ConUnconscious": "Inconscient",
  "DND5E.Concentration": "Concentration",

  "DND5E.ConsumeTitle": "Consommation des ressources",
  "DND5E.ConsumeAmmunition": "Munition",
  "DND5E.ConsumeAttribute": "Caractéristique",
  "DND5E.ConsumeMaterial": "Matériel",
  "DND5E.ConsumeCharges": "Charge",
  "DND5E.ConsumeWarningNoResource": "{name} consomme {type} mais aucune ressource n'est indiquée!",
  "DND5E.ConsumeWarningNoSource": "La ressource désignée {type} que consomme {name} n'existe plus!",
  "DND5E.ConsumeWarningNoQuantity": "{name} est à court de {type}!",
  "DND5E.ConsumeWarningZeroAttribute": "{name} a épuisé toutes ses ressources indiquées!",

  "DND5E.ConsumableAmmunition": "Munitions",
  "DND5E.ConsumableFood": "Nourriture",
  "DND5E.ConsumablePoison": "Poison",   
  "DND5E.ConsumablePotion": "Potion",   
  "DND5E.ConsumableRod": "Bâton",    
  "DND5E.ConsumableScroll": "Parchemin",
  "DND5E.ConsumableTrinket": "Bijou",
  "DND5E.ConsumableWand": "Baguette",
  "DND5E.ConsumableUseWarnStart": "Ce consommable a",
  "DND5E.ConsumableUseWarnEnd": "de l'unité actuelle",
  "DND5E.ConsumableUnitWarn": "unités restantes",
  "DND5E.ConsumableLastChargeWarn": "C'est la dernière charge de cette unité et sa consommation réduira également la quantité de l'article de 1",
  "DND5E.ConsumableWithoutCharges": "unités disponibles utilisables",
  "DND5E.Consumed": "Consommé", 
  "DND5E.Cover": "Abri",
  "DND5E.CoverHalf": "Partiel",
  "DND5E.CoverThreeQuarters": "Important",
  "DND5E.CoverTotal": "Total",
  "DND5E.CostGP": "Coût (PO)",
  "DND5E.Critical": "Critique",
  "DND5E.CriticalHit": "Coup Critique",
  "DND5E.Currency": "Monnaie",
  "DND5E.CurrencyCP": "Bronze",
  "DND5E.CurrencyConvert": "Convertir toutes les monnaies",
  "DND5E.CurrencyConvertHint": "Convertir toutes les monnaies transportées dans la catégorie la plus élevée possible afin de réduire la quantité de pièces transportées par le personnage. Attention, cette action ne peut être annulée.",
  "DND5E.CurrencyEP": "Electrum",
  "DND5E.CurrencyGP": "Or",
  "DND5E.CurrencyPP": "Platine",
  "DND5E.CurrencySP": "Argent",
  "DND5E.DamImm": "Immunité aux dégâts",
  "DND5E.DamRes": "Résistance aux dégâts",
  "DND5E.DamVuln": "Vulnerabilité aux dégâts",
  "DND5E.Damage": "Dégâts",
  "DND5E.DamageAcid": "Acide",     
  "DND5E.DamageBludgeoning": "Contondant",
  "DND5E.DamageCold": "Froid",     
  "DND5E.DamageFire": "Feu",       
  "DND5E.DamageForce": "Force",
  "DND5E.DamageLightning": "Foudre",
  "DND5E.DamageNecrotic": "Nécrotique",
  "DND5E.DamagePiercing": "Perforant",
  "DND5E.DamagePhysical": "Physique Non-Magique",
  "DND5E.DamagePoison": "Poison",
  "DND5E.DamagePsychic": "Psychique",
  "DND5E.DamageRadiant": "Radiant",
  "DND5E.DamageRoll": "Jet de dégâts",
  "DND5E.DamageSlashing": "Tranchant",
  "DND5E.DamageThunder": "Tonnerre",
  "DND5E.Day": "Jour",
  "DND5E.DeathSave": "Jet de sauvegarde contre la mort",
  "DND5E.DeathSaveCriticalSuccess": "réussite critique par {name} sur son jet de sauvegarde contre la mort, +1 pt de vie !",
  "DND5E.DeathSaveSuccess": "{name} est stabilisé :  3 succès au jet de sauvegarde contre la mort !",
  "DND5E.DeathSaveFailure": "{name} est mort :  3 échecs au jet de sauvegarde contre la mort !",
  "DND5E.DeathSavingThrow": "Lancer le jet de sauvegarde contre la mort",
  "DND5E.DeathSaveUnnecessary": "Vous n'avez pas besoin de lancer de jets de sauvegarde contre la mort : soit vos points de vie sont positifs, soit vous avez déjà atteint 3 succès ou échecs.",
  "DND5E.Default": "Par défaut",
  "DND5E.DefaultAbilityCheck": "Test de carac. par défaut",
  "DND5E.Description": "Description",
  "DND5E.Details": "Détails",
  "DND5E.Dimensions": "Dimensions",
  "DND5E.Disadvantage": "Désavantage",
  "DND5E.DistAny": "Cible",
  "DND5E.DistFt": "mètre",
  "DND5E.DistMi": "Km",
  "DND5E.DistSelf": "Soi-même",
  "DND5E.DistTouch": "Contact",
  "DND5E.Duration": "Durée",
  "DND5E.Effects": "Effets",
  "DND5E.EquipmentBonus": "Bonus magique",
  "DND5E.EquipmentClothing": "Vêtements",
  "DND5E.EquipmentHeavy": "Lourdes",
  "DND5E.EquipmentLight": "Légères",
  "DND5E.EquipmentMedium": "Intermédiaires",
  "DND5E.EquipmentNatural": "Armure naturelle",
  "DND5E.EquipmentShield": "Bouclier",
  "DND5E.EquipmentShieldProficiency": "Bouclier",
  "DND5E.EquipmentTrinket": "Bijou",
  "DND5E.EquipmentVehicle": "Equipement de Véhicule",
  "DND5E.Equipped": "Equipé",
  "DND5E.Exhaustion": "Epuisement",
  "DND5E.Expertise": "Expertise",
  "DND5E.FeatureActionRecharge": "Action de Rechargement",
  "DND5E.Flaws": "Défauts",

  "DND5E.EffectCreate": "Créer un effet",
  "DND5E.EffectToggle": "Changer l'état de l'effet",
  "DND5E.EffectEdit": "Editer l'effet",
  "DND5E.EffectDelete": "Effacer l'effet",
  
  "DND5E.ItemTypeClass": "Classe",
  "DND5E.ItemTypeClassPl": "Niveaux",
  "DND5E.ItemTypeConsumable": "Consommable",
  "DND5E.ItemTypeConsumablePl": "Consommables",
  "DND5E.ItemTypeContainer": "Conteneur",
  "DND5E.ItemTypeContainerPl": "Conteneurs",
  "DND5E.ItemTypeEquipment": "Equipement",
  "DND5E.ItemTypeEquipmentPl": "Equipements",
  "DND5E.ItemTypeLoot": "Butin",
  "DND5E.ItemTypeLootPl": "Butins",
  "DND5E.ItemTypeTool": "Outils",
  "DND5E.ItemTypeToolPl": "Outils",
  "DND5E.ItemTypeSpell": "Sort",
  "DND5E.ItemTypeSpellPl": "Sorts",
  "DND5E.ItemTypeWeapon": "Arme",
  "DND5E.ItemTypeWeaponPl": "Armes",
  "DND5E.ItemNoUses": "{name} ne peut plus être utilisé.",
 
  "DND5E.FeatureActive": "Aptitudes actives",
  "DND5E.FeatureAdd": "Ajouter une aptitude",
  "DND5E.FeatureAttack": "Aptitude d'attaque",
  "DND5E.FeaturePassive": "Aptitudes passives",
  "DND5E.FeatureRechargeOn": "Rechargement effectif ",
  "DND5E.FeatureRechargeResult": "Résultat 1d6",
  "DND5E.FeatureUsage": "Utilisation des aptitudes",
  "DND5E.Features": "Aptitudes",
  "DND5E.FeetAbbr": "m.",
  "DND5E.Filter": "Filtrer",
  "DND5E.FilterNoSpells": "Aucun sort n'a été trouvé pour ces filtres.",
  "DND5E.NoSpellLevels": "Ce personnage n'a pas de niveau de lanceur de sorts, mais vous pouvez ajouter des sorts manuellement.",

  "DND5E.FlagsInstructions": "Configurez les aptitudes et les traits raciaux qui personnalisent les personnages",
  "DND5E.FlagsSave": "Mettre à jour les traits spéciaux",
  "DND5E.FlagsTitle": "Configurer Traits spéciaux",
  "DND5E.FlagsDiamondSoul": "Âme de diamant",
  "DND5E.FlagsDiamondSoulHint": "Confère la maîtrise de tous les jets de sauvegarde",
  "DND5E.FlagsPowerfulBuild": "Puissamment bâtit.",
  "DND5E.FlagsPowerfulBuildHint": "Permet une capacité de charge accrue",
  "DND5E.FlagsElvenAccuracy": "Précision Elfique",
  "DND5E.FlagsElvenAccuracyHint": "possibilité de relancer un dé si avantage sur Dex, Int, Sag ou Cha.",
  "DND5E.FlagsHalflingLucky": "Chance Halfelin",
  "DND5E.FlagsHalflingLuckyHint": "Relancer les 1 sur les jets d'att, carac ou sauvegarde.",
  "DND5E.FlagsInitiativeAdv": "Avantage à l'initative",
  "DND5E.FlagsInitiativeAdvHint": "Obtenu par Don ou objet magique.",
  "DND5E.FlagsAlert": "Vigilant (Don)",
  "DND5E.FlagsAlertHint": "Donne +5 à l'initiative.",
  "DND5E.FlagsJOAT": "Touche-à-tout",
  "DND5E.FlagsJOATHint": "ajouter la moitié de votre bonus de maîtrise à tout jet de carac. sans bonus de maîtrise",
  "DND5E.FlagsObservant": "Observateur (Don)",
  "DND5E.FlagsObservantHint": "Donne +5 à à la sag. passive (Perception) et l'int. passive (Investigation)..",
  "DND5E.FlagsReliableTalent": "Talent (Roublard)",
  "DND5E.FlagsReliableTalentHint": "Compétence de prédilection proche de la perfection : 9 ou moins vaut 10 sur un jet.",
  "DND5E.FlagsRemarkableAthlete": "Athlète remarquable.",
  "DND5E.FlagsRemarkableAthleteHint": "ajouter la moitié de votre bonus de maîtrise à tous jet de carac. Physique (sans bonus de M.) et initiative",
  "DND5E.FlagsCritThreshold": "Plage de critique de l'arme",
  "DND5E.FlagsCritThresholdHint": "Permet d'étendre la gamme critique ; par exemple, critique amélioré ou supérieur",
  "DND5E.FlagsSpellCritThreshold": "Plage de critique de sort",
  "DND5E.FlagsSpellCritThresholdHint": "Permet d'étendre la gamme critique pour les sorts d'attaque",
  "DND5E.FlagsMeleeCriticalDice": "Dé de dégâts pour les critiques au contact",
  "DND5E.FlagsMeleeCriticalDiceHint": "Un certain nombre de dés de dégâts supplémentaires ont été ajoutés aux coups critiques des armes de mêlée.",

  "DND5E.Flat": "Fixe",
  "DND5E.Formula": "Formule",
  "DND5E.GrantedAbilities": "Aptitudes proposées",
  "DND5E.HalfProficient": "demi-compétence (Half Proficient)",
  "DND5E.Healing": "Soin",
  "DND5E.HealingTemp": "Guérison (temporaire)",
  "DND5E.HitPoints": "Points de Vie",
  "DND5E.HP": "PV",
  "DND5E.HealthConditions": "Conditions Pts de Vie",
  "DND5E.HPFormula": "Calcul Pts de vie",
  "DND5E.HitDice": "Des de Vie",
  "DND5E.HitDiceRoll": "Lancer les dés de Vie",
  "DND5E.HitDiceUsed": "Dés de Vie Utilisés",
  "DND5E.HitDiceWarn": "{name} n'a pas de {formula} Dés de Vie restant!",
  "DND5E.Ideals": "Idéaux",
  "DND5E.Identified": "Identifié",
  "DND5E.Initiative": "Initiative",
  "DND5E.Inspiration": "Inspiration",
  "DND5E.Inventory": "Inventaire",
  "DND5E.ItemActionType": "Type d'action",
  "DND5E.ItemActivationCondition": "Condition d'activation",
  "DND5E.ItemActivationCost": "Coût d'activation",
  "DND5E.ItemAttackBonus": "Bonus d'attaque",
  "DND5E.ItemConsumableActivation": "Activation du consommable",
  "DND5E.ItemConsumableUsage": "Consommation",
  "DND5E.ItemConsumableDetails": "Détail sur le consommable",
  "DND5E.ItemConsumableStatus": "Statut du consommable",
  "DND5E.ItemConsumableType": "Type de consommable",
  "DND5E.ItemContainerCapacity": "Capacité",
  "DND5E.ItemContainerCapacityItems": "Items",
  "DND5E.ItemContainerCapacityType": "Type de Capacité",
  "DND5E.ItemContainerCapacityWeight": "poids",
  "DND5E.ItemContainerDetails": "Détails Conteneur",
  
  "DND5E.ItemContainerProperties": "Propriétés du conteneur",
  "DND5E.ItemContainerWeightless": "Contenu poids non significatif",
  "DND5E.ItemCreate": "Créer un Item",
  "DND5E.ItemDelete": "Effacer un Item",
  "DND5E.ItemDestroyEmpty": "Détruire si vide",
  "DND5E.ItemEdit": "Éditer un Item",
  "DND5E.ItemEquipmentAction": "Action de s'équiper",
  "DND5E.ItemEquipmentDetails": "Détail de l'équipement",
  "DND5E.ItemEquipmentDexMod": "Modificateur de Dextérité Max.",

  "DND5E.ItemEquipmentStatus": "État de l'équipement",
  "DND5E.ItemEquipmentStealthDisav": "Impose un désavantage à la discrétion",
  "DND5E.ItemEquipmentType": "Type d'équipement",
  "DND5E.ItemEquipmentUsage": "Usage de l'équipement",

  "DND5E.ItemName": "Nom de l'Item",
  "DND5E.ItemNew": "Ajout {type}",
  "DND5E.ItemRechargeCheck": "vérification des recharges de {name}",
  "DND5E.ItemRechargeFailure": "échec!",
  "DND5E.ItemRechargeSuccess": "succès!",
  "DND5E.ItemRequiredStr": "Force requise",
  "DND5E.ItemToolProficiency": "Maîtrise des outils",

  "DND5E.ItemWeaponAttack": "Propriétés d'Attaque de l'arme",
  "DND5E.ItemWeaponDetails": "Détails de l'arme",
  "DND5E.ItemWeaponProperties": "Propriétés de l'arme",

  "DND5E.ItemWeaponStatus": "Statut de l'arme",
  "DND5E.ItemWeaponType": "Type d'arme",
  "DND5E.ItemWeaponUsage": "Utilisation de l'arme",
  "DND5E.JackOfAllTrades": "Touche-à-Tout",
  "DND5E.LairAct": "Utilise une action d'antre",
  "DND5E.LairActionLabel": "action d'antre",
  "DND5E.Languages": "Langues",
  "DND5E.LanguagesAarakocra": "Aarakocra",
  "DND5E.LanguagesAbyssal": "Abyssal",
  "DND5E.LanguagesAquan": "Aquatique",
  "DND5E.LanguagesAuran": "Aérien",
  "DND5E.LanguagesCelestial": "Céleste",
  "DND5E.LanguagesCommon": "Commun",
  "DND5E.LanguagesDeepSpeech": "Profond",
  "DND5E.LanguagesDraconic": "Draconique",
  "DND5E.LanguagesDruidic": "Druidique",
  "DND5E.LanguagesDwarvish": "Nain",
  "DND5E.LanguagesElvish": "Elfique",
  "DND5E.LanguagesGiant": "Géant",
  "DND5E.LanguagesGith": "Gith",
  "DND5E.LanguagesGnoll": "Gnoll",
  "DND5E.LanguagesGnomish": "Gnome",
  "DND5E.LanguagesGoblin": "Gobelin",
  "DND5E.LanguagesHalfling": "Halfelin",
  "DND5E.LanguagesIgnan": "Igné",
  "DND5E.LanguagesInfernal": "Infernal",
  "DND5E.LanguagesOrc": "Orque",
  "DND5E.LanguagesPrimordial": "Primordial",
  "DND5E.LanguagesSylvan": "Sylvain",
  "DND5E.LanguagesTerran": "Terreux",
  "DND5E.LanguagesThievesCant": "Argot des voleurs",
  "DND5E.LanguagesUndercommon": "Commun des profondeurs",
  "DND5E.LegAct": "Action Légendaire",
  "DND5E.LegendaryActionLabel": "Action Légendaire",
  "DND5E.LegRes": "Résistance légendaire",
  "DND5E.Level": "Niveau",
  "DND5E.LevelScaling": "Échelle de niveau",
  "DND5E.LimitedUses": "Utilisation limitée",
  "DND5E.LongRest": "Repos Long",
  "DND5E.LongRestNormal": "Repos Long (8 heures)",
  "DND5E.LongRestGritty": "Repos Long (7 jours)",
  "DND5E.LongRestEpic": "Repos Long (1 heure)",
  "DND5E.LongRestOvernight": "Repos Long (Nouvelle Journée)",
  "DND5E.LongRestResult": "{name} prend un repos long et recupère {health} Points de Vie et {dice} Dés de Vie",
  "DND5E.LongRestResultHitDice": "{name} prend un repos long et récupère {dice} Dés de Vie.",
  "DND5E.LongRestResultHitPoints": "{name} prend un repos long et recupère {health} Points de Vie",
  "DND5E.LongRestResultShort": "{name} prend un repos long.",
  "DND5E.Max": "Max",
  "DND5E.Modifier": "Modificateur",
  "DND5E.Name": "Nom du Personnage",
  "DND5E.NoCharges": "Aucune Charge",
  "DND5E.None": "Aucun",
  "DND5E.Normal": "Normal",
  "DND5E.NotProficient": "Sans maîtrise",
  "DND5E.OtherFormula": "Autre formule",
  "DND5E.PactMagic": "Magie de pacte",
  "DND5E.Passive": "Passif",
  "DND5E.PersonalityTraits": "Traits de personnalité",
  "DND5E.PlaceTemplate": "Modèle de mesure des distances",
  "DND5E.Polymorph": "Polymorphe",
  "DND5E.PolymorphAcceptSettings": "Paramètres personnalisés",
  "DND5E.PolymorphKeepBio": "Conserver sa biographie",
  "DND5E.PolymorphKeepClass": "Conserver le bonus de maîtrise (laisse les éléments de la classe dans la feuille)",
  "DND5E.PolymorphKeepFeats": "Conserver les aptitudes",
  "DND5E.PolymorphKeepItems": "Conserver l'équipement",
  "DND5E.PolymorphKeepMental": "Conserver les caractéristiques mentales (Int, Sag, Cha)",
  "DND5E.PolymorphKeepPhysical": "Conserver les caractéristiques physiques (For, Dex, Con)",
  "DND5E.PolymorphKeepSaves": "Conserver les jets de sauvegardes",
  "DND5E.PolymorphKeepSkills": "Conserver les scores de compétences",
  "DND5E.PolymorphKeepSpells": "Conserver les sorts",
  "DND5E.PolymorphKeepVision": "Garder la vision (personnage et token)",
  "DND5E.PolymorphMergeSaves": "Fusionner les jets de sauvegardes (prendre le plus élevé)",
  "DND5E.PolymorphMergeSkills": "Fusionner les compétences (prendre le plus élevé)",
  "DND5E.PolymorphPromptTitle": "Transformer le personnage",
  "DND5E.PolymorphRestoreTransformation": "Annuler la transformation",
  "DND5E.PolymorphRevertWarn": "Vous n'avez pas la permission d'inverser l'état polymorphe de cet acteur.",
  "DND5E.PolymorphTmpClass": "Classe temporaire",
  "DND5E.PolymorphTokens": "Transformer tous les Tokens liés ?",
  "DND5E.PolymorphWarn": "Vous n'avez pas le droit de polymorphoser cet acteur !",
  "DND5E.PolymorphWildShape": "Morphe inconnue",
  "DND5E.Prepared": "Préparé",
  "DND5E.Price": "Prix",
  "DND5E.Proficiency": "Maîtrise",
  "DND5E.Proficient": "Maîtrisé",
  "DND5E.Quantity": "Quantité",
  "DND5E.Race": "Race",
  "DND5E.Range": "Portée",
  "DND5E.Rarity": "Rareté",
  "DND5E.Reaction": "Réaction",
  "DND5E.ReactionPl": "Réactions",
  "DND5E.Recharge": "Recharge",
  "DND5E.RequiredMaterials": "Matériels requis",
  "DND5E.Requirements": "Nécessite",
  "DND5E.ResourcePrimary": "Ressource 1",
  "DND5E.ResourceSecondary": "Ressource 2",
  "DND5E.ResourceTertiary": "Ressource 3",
  "DND5E.RestL": "Rep. L.",
  "DND5E.RestS": "Rep. C.",
  "DND5E.Ritual": "Rituel",
  "DND5E.Roll": "Lancer",
  "DND5E.RollExample": "exemple +1d4",
  "DND5E.RollMode": "Type de lancer",
  "DND5E.RollSituationalBonus": "Bonus de situation ?",
 
  "DND5E.MovementConfig": "Configurer la vitesse de déplacement",
  "DND5E.MovementConfigHint": "Configurez la vitesse de déplacement et les mouvement spéciaux de cette créature.",
  "DND5E.MovementWalk": "Marche",
  "DND5E.MovementBurrow": "Creuse",
  "DND5E.MovementClimb": "Escalade",
  "DND5E.MovementHover": "Stationnaire",
  "DND5E.MovementFly": "Vol",
  "DND5E.MovementSwim": "Nage",
  "DND5E.MovementUnits": "Unités",

  "DND5E.SheetClassCharacter": "Feuille de Personnage-Joueur par défaut",
  "DND5E.SheetClassNPC": "Feuille de PNJ par défaut",
  "DND5E.SheetClassVehicle": "Feuille de Véhicule par défaut",
  "DND5E.SheetClassItem": "Feuille d'Items par défaut",

  "DND5E.SavingThrow": "Jet de sauvegarde",
  "DND5E.SaveDC ": "DD {dc} {ability}",
  "DND5E.SavePromptTitle": "Jet de sauvegarde : {ability}",
  "DND5E.ScalingFormula": "Formule d'échelle",
  "DND5E.SchoolAbj": "Abjuration",   
  "DND5E.SchoolCon": "Invocation",   
  "DND5E.SchoolDiv": "Divination",   
  "DND5E.SchoolEnc": "Enchantement", 
  "DND5E.SchoolEvo": "Evocation",    
  "DND5E.SchoolIll": "Illusion",     
  "DND5E.SchoolNec": "Nécromancie",  
  "DND5E.SchoolTrs": "Transmutation",
  "DND5E.SenseBS": "Vision aveugle",
  "DND5E.SenseDV": "Vision dans le noir",
  "DND5E.SenseTR": "Vision parfaite",
  "DND5E.SenseTS": "Vision des vibrations",
  "DND5E.Senses": "Sens",
  "DND5E.ShortRest": "Repos court",
  "DND5E.ShortRestNormal": "Repos court (1 heure)",
  "DND5E.ShortRestGritty": "Repos court (8 heures)",
  "DND5E.ShortRestEpic": "Repos court (5 minutes)",
  "DND5E.ShortRestOvernight": "Repos court (Nouvelle Journée)",
  "DND5E.ShortRestHint": "Prendre un peu de repos ? Lors d'un repos court, vous pouvez lancer vos dés de vies et récupérer des ressources primaires ou secondaires.",
  "DND5E.ShortRestNoHD": "Pas de dés de vie restant",
  "DND5E.ShortRestResult": "{name} prend un repos court en dépensant {dice} Dés de Vie pour récupérer {health} Points de Vie.",
  "DND5E.ShortRestResultShort": "{name} prend un repos court.",
  "DND5E.ShortRestSelect": "Sélectionner les dés à lancer",
  "DND5E.Size": "Taille",
  "DND5E.SizeGargantuan": "Gigantesque",
  "DND5E.SizeHuge": "Très Grande",
  "DND5E.SizeLarge": "Grande",
  "DND5E.SizeMedium": "Moyenne",
  "DND5E.SizeSmall": "Petite",
  "DND5E.SizeTiny": "Très Petite",
  "DND5E.SkillAcr": "Acrobaties",
  "DND5E.SkillAni": "Dressage",
  "DND5E.SkillArc": "Arcanes",
  "DND5E.SkillAth": "Athlétisme",
  "DND5E.SkillDec": "Supercherie",
  "DND5E.SkillHis": "Histoire",
  "DND5E.SkillIns": "Perspicacité",
  "DND5E.SkillInv": "Investigation",
  "DND5E.SkillItm": "Intimidation",
  "DND5E.SkillMed": "Medecine",
  "DND5E.SkillNat": "Nature",
  "DND5E.SkillPer": "Persuasion",
  "DND5E.SkillPrc": "Perception",
  "DND5E.SkillPrf": "Representation",
  "DND5E.SkillRel": "Religion",
  "DND5E.SkillSlt": "Escamotage",
  "DND5E.SkillSte": "Discretion",
  "DND5E.SkillSur": "Survie",
  "DND5E.SkillPromptTitle": "Jet de compétence : {skill}",
  "DND5E.Source": "Origine",
  "DND5E.Special": "Spécial",
  "DND5E.SpecialTraits": "Traits spéciaux",
  "DND5E.Speed": "Vitesse",
  "DND5E.SpeedSpecial": "Mouvement spécial",
  "DND5E.SpellAbility": "Caracteristique de lancer de sort",
  "DND5E.SpellAdd": "Ajoute un sort",
  "DND5E.SpellCantrip": "Tours de magie",
  "DND5E.SpellCastConsume": "Consomme un emplacement de sort ?",
   "DND5E.SpellCastNoSlots": "Vous n'avez pas d'emplacement de sorts disponible pour ce sort",
  "DND5E.SpellCastUpcast": "Lancer au niveau",
  "DND5E.SpellcasterLevel": "Niveau de lanceur de sort",
  "DND5E.SpellCastingHeader": "Détail du Lancement du sort",
  "DND5E.SpellCasting": "Propriétés du lancement de sort",
  "DND5E.SpellComponents": "Composantes",
  "DND5E.SpellCreate": "Ajouter un sort",
  "DND5E.SpellDC": "DD Sort",
  "DND5E.SpellDetails": "Détails du sort",
  "DND5E.SpellEffects": "Effets du sort",
  "DND5E.SpellLevel": "Niveau de sort",
  "DND5E.SpellLevel0": "Tours de magie",
  "DND5E.SpellLevel1": "Niveau 1",
  "DND5E.SpellLevel2": "Niveau 2",
  "DND5E.SpellLevel3": "Niveau 3",
  "DND5E.SpellLevel4": "Niveau 4",
  "DND5E.SpellLevel5": "Niveau 5",
  "DND5E.SpellLevel6": "Niveau 6",
  "DND5E.SpellLevel7": "Niveau 7",
  "DND5E.SpellLevel8": "Niveau 8",
  "DND5E.SpellLevel9": "Niveau 9",
  "DND5E.SpellLevelSlot": "{level} ({n} Emplacements)",
  "DND5E.SpellLevelPact": "Emplacement de Pacte [niveau {level}] ({n} Emplacements)",
  "DND5E.SpellMaterials": "Composantes Matérielles",
  "DND5E.SpellName": "Nom du sort",
  "DND5E.SpellNone": "Aucun",
  "DND5E.SpellPrepAtWill": "A volonté",
  "DND5E.SpellPrepInnate": "Réaction",
  "DND5E.SpellPrepPrepared": "Préparé",
  "DND5E.SpellPrepAlways": "Toujours disponible",
  "DND5E.SpellPreparationMode": "Type de préparation du sort",
  "DND5E.SpellPrepared": "Préparé",
  "DND5E.SpellProgArt": "Artificier",
  "DND5E.SpellProgFull": "Lanceur Complet ('full caster' : magicien,druide,clerc,barde,ensorceleur.)",
  "DND5E.SpellProgHalf": "1/2 Lanceur ('Half Caster' : paladin, rôdeur)",
  "DND5E.SpellProgOverride": "Non assujetti",
  "DND5E.SpellProgPact": "Magie de pacte",
  "DND5E.SpellProgThird": "1/3 Lanceur ('Third Caster' : Chevalier Occulte, Arnaqueur Arcanique)",
  "DND5E.SpellProgression": "Acquisition des emplacements de sort",
  "DND5E.SpellSchool": "École de magie",
  "DND5E.SpellScroll": "Parchemin",
  "DND5E.SpellTarget": "Cible du sort",
  "DND5E.SpellUnpreprared": "Non préparé",
  "DND5E.SpellUsage": "Durée d'incant.",
  "DND5E.Spellbook": "Incantations",
  "DND5E.StealthDisadvantage": "Désavantage à la discrétion",
  "DND5E.SubclassName": "Spécialisation (sous-classe)",
  "DND5E.Supply": "Réserve",
  "DND5E.Target": "Cible",
  "DND5E.TargetAlly": "Allié",
  "DND5E.TargetCone": "Cône",
  "DND5E.TargetCreature": "Creature",
  "DND5E.TargetCube": "Cube",
  "DND5E.TargetCylinder": "Cylindre",
  "DND5E.TargetEnemy": "Ennemi",
  "DND5E.TargetLine": "Ligne",
  "DND5E.TargetObject": "Objet",
  "DND5E.TargetRadius": "Rayon",
  "DND5E.TargetSelf": "Soi-même",
  "DND5E.TargetSpace": "Espace",
  "DND5E.TargetSphere": "Sphère",
  "DND5E.TargetSquare": "Carré",
  "DND5E.TargetWall": "Mur",
  "DND5E.TargetWidth": "Largeur de Ligne",
  "DND5E.Temp": "Temp",
  "DND5E.Threshold": "Seuil",
  "DND5E.TimeDay": "Jours",
  "DND5E.TimeHour": "Heures",
  "DND5E.TimeInst": "Instantané",
  "DND5E.TimeMinute": "Minutes",
  "DND5E.TimeMonth": "Mois",
  "DND5E.TimePerm": "Permanent",
  "DND5E.TimeRound": "Rounds",
  "DND5E.TimeTurn": "Tours",
  "DND5E.TimeYear": "Années",
  "DND5E.ToolArtisans": "Outils d'artisanat",
  "DND5E.ToolDisguiseKit": "Kit de déguisement",
  "DND5E.ToolCheck": "Tests des Outils",
  "DND5E.ToolForgeryKit": "Kit de contrefaçon",
  "DND5E.ToolGamingSet": "Jeux de hasard",
  "DND5E.ToolHerbalismKit": "Kit d'herboristerie",
  "DND5E.ToolMusicalInstrument": "Instrument de musique",
  "DND5E.ToolNavigators": "Outils de navigation",
  "DND5E.ToolPoisonersKit": "Kit de l'empoisonneur",
  "DND5E.ToolThieves": "Outils de voleur",
  "DND5E.ToolVehicle": "Véhicule (Terre ou Eau)",
  "DND5E.TraitArmorProf": "maîtrise d'armure",
  "DND5E.TraitSave": "Mise à jour",
  "DND5E.TraitSelectorSpecial": "Spécial (Séparé par des points-virgules)",
  "DND5E.TraitToolProf": "maîtrise de métier",
  "DND5E.TraitWeaponProf": "maîtrise  d'armes",
  "DND5E.Type": "Type",
  "DND5E.Unequipped": "Non Equipé",
  "DND5E.Unlimited": "Illimité",
  "DND5E.Usage": "Utilisation",
  "DND5E.Use": "Utilisez",
  "DND5E.Uses": "Utilise",
  "DND5E.Vehicle": "Véhicule",
  "DND5E.VehicleActionStations": "Stations d'Action",
  "DND5E.VehicleActionThresholds": "Seuils d'actions",
  "DND5E.VehicleCargo": "Cargaison",
  "DND5E.VehicleCargoCapacity": "Capacité de cargaison",
  "DND5E.VehicleCargoCrew": "Cargaison & Equipage",
  "DND5E.VehicleCreatureCapacity": "Capacité des créatures",
  "DND5E.VehicleCrew": "Equipage",
  "DND5E.VehicleCrewed": "Equipage",
  "DND5E.VehicleCrewAction": "Action de l'Equipage",
  "DND5E.VehicleEquipment": "Equipement du Véhicule",
  "DND5E.VehicleMishap": "Accident",
  "DND5E.VehiclePassengers": "Passagers",
  "DND5E.VehicleUncrewed": "Non répertorié",
  "DND5E.Versatile": "Polyvalent",
  "DND5E.VersatileDamage": "Dégâts polyvalents",
  "DND5E.VsDC": "ctre le DD",
  "DND5E.WeaponImprov": "Improvisée",
  "DND5E.WeaponMartialM": "Contact de guerre",
  "DND5E.WeaponMartialProficiency": "Armes de guerre",
  "DND5E.WeaponMartialR": "A distance de guerre",
  "DND5E.WeaponNatural": "Naturelle",
  "DND5E.WeaponPropertiesAmm": "Munitions",
  "DND5E.WeaponPropertiesFin": "Finesse",
  "DND5E.WeaponPropertiesFir": "Feu nourri",
  "DND5E.WeaponPropertiesFoc": "Focus",
  "DND5E.WeaponPropertiesHvy": "Lourde",
  "DND5E.WeaponPropertiesLgt": "Légère",
  "DND5E.WeaponPropertiesLod": "Chargement",
  "DND5E.WeaponPropertiesRch": "Allonge",
  "DND5E.WeaponPropertiesRel": "Recharger",
  "DND5E.WeaponPropertiesRet": "Reviens",
  "DND5E.WeaponPropertiesSpc": "Spéciale",
  "DND5E.WeaponPropertiesThr": "Lancer",
  "DND5E.WeaponPropertiesTwo": "A deux mains",
  "DND5E.WeaponPropertiesVer": "Polyvalente",
  "DND5E.WeaponSiege": "Armes de Siège",
  "DND5E.WeaponSimpleM": "Contact courantes",
  "DND5E.WeaponSimpleProficiency": "Armes courantes",
  "DND5E.WeaponSimpleR": "A distance courantes",
  "DND5E.Weight": "Poids",
  "DND5E.available": "disponible",
  "DND5E.description": "Un système de jeu complet pour Dungeons & Dragons 5ème édition dans l'environnement Foundry VTT.",
  "DND5E.of": "de",
  "DND5E.per": "par",
  "DND5E.spell": "sort",
  "SETTINGS.5eAllowPolymorphingL": "Permettre aux acteurs de transformer (polymorphisme) leurs propres acteurs.",
  "SETTINGS.5eAllowPolymorphingN": "Permettre le polymorphisme",
  "SETTINGS.5eAutoCollapseCardL": "Réduire automatiquement les descriptions de la carte d'item dans le journal de Chat",
  "SETTINGS.5eAutoCollapseCardN": "Réduire les cartes d'items dans le Chat",
  "SETTINGS.5eAutoSpellTemplateL": "Lorsqu'un sort est lancé, commence par créer le gabarit correspondant le cas échéant (nécessite un role de joueur de 'confiance' -TRUSTED- ou supérieur)",
  "SETTINGS.5eAutoSpellTemplateN": "Toujours poser le gabarit du sort",
  "SETTINGS.5eCurWtL": "L'argent affecte la charge totale portée selon la définition du Manuel des Joueurs p143.",
  "SETTINGS.5eCurWtN": "Appliquer le poids de l'argent",

  "SETTINGS.5eDiagEuclidean": "Euclidien (2,15m de diagonale)",
  "SETTINGS.5eDiagL": "Configurez quelle règle de mouvement diagonal doit être utilisée pour les parties attachées sur ce système.",
  "SETTINGS.5eDiagN": "Règle de mouvement en diagonal",
  "SETTINGS.5eDiagPHB": "Equidistant : Manuel des Joueurs p192 (1,5/1,5/1,5)",
  "SETTINGS.5eDiagDMG": "En Alternant : Dungeon Master's Guide p251 (1,5/3/1,5)",
  "SETTINGS.5eInitTBL": "Ajoutez en décimal le score brut de dextérité pour départager les intiatives identiques",
  "SETTINGS.5eInitTBN": "Départager les initiatives identiques",
  "SETTINGS.5eNoExpL": "Supprimer les barres d'expérience des feuilles de personnage.",
  "SETTINGS.5eNoExpN": "Désactiver le suivi de l'expérience",
  "SETTINGS.5eRestL": "Configurez quelle variante de repos doit être utilisée pour les parties",
  "SETTINGS.5eRestN": "Durées de Repos",
  "SETTINGS.5eRestPHB": "Manuel des Joueurs (RL: 8 heures, RC: 1 heure)",
  "SETTINGS.5eRestGritty": "Réaliste ~dur~ (RL: 7 jours, RC: 8 heures)",
  "SETTINGS.5eRestEpic": "Héroïsme épique (RL: 1 heure, RC: 1 min)"
}
